<?xml version="1.0" encoding="UTF-8" standalone="no"?>
<!-- Created with Inkscape (http://www.inkscape.org/) -->

<svg
   xmlns:dc="http://purl.org/dc/elements/1.1/"
   xmlns:cc="http://creativecommons.org/ns#"
   xmlns:rdf="http://www.w3.org/1999/02/22-rdf-syntax-ns#"
   xmlns:svg="http://www.w3.org/2000/svg"
   xmlns="http://www.w3.org/2000/svg"
   xmlns:sodipodi="http://sodipodi.sourceforge.net/DTD/sodipodi-0.dtd"
   xmlns:inkscape="http://www.inkscape.org/namespaces/inkscape"
   width="72.238312mm"
   height="9.058773mm"
   viewBox="0 0 255.96252 32.098015"
   id="svg4421"
   version="1.1"
   inkscape:version="0.91 r13725"
   sodipodi:docname="enemies.svg"
   inkscape:export-filename="/home/gt/dev/tinycoderu/games/sparklingtail-ng/assets/death.png"
   inkscape:export-xdpi="90"
   inkscape:export-ydpi="90">
  <defs
     id="defs4423" />
  <sodipodi:namedview
     id="base"
     pagecolor="#ffffff"
     bordercolor="#666666"
     borderopacity="1.0"
     inkscape:pageopacity="0.0"
     inkscape:pageshadow="2"
     inkscape:zoom="1.979899"
     inkscape:cx="10.754166"
     inkscape:cy="21.541956"
     inkscape:document-units="px"
     inkscape:current-layer="layer1"
     showgrid="false"
     inkscape:window-width="2558"
     inkscape:window-height="1438"
     inkscape:window-x="1920"
     inkscape:window-y="0"
     inkscape:window-maximized="0"
     fit-margin-top="0"
     fit-margin-left="0"
     fit-margin-right="0"
     fit-margin-bottom="0" />
  <metadata
     id="metadata4426">
    <rdf:RDF>
      <cc:Work
         rdf:about="">
        <dc:format>image/svg+xml</dc:format>
        <dc:type
           rdf:resource="http://purl.org/dc/dcmitype/StillImage" />
        <dc:title />
      </cc:Work>
    </rdf:RDF>
  </metadata>
  <g
     inkscape:label="Layer 1"
     inkscape:groupmode="layer"
     id="layer1"
     transform="translate(-186.91995,-510.1321)">
    <g
       id="g5111">
      <g
         transform="translate(15.15129,-2.6377952e-6)"
         id="g5091">
        <g
           id="g5040"
           transform="translate(29.305864,81.809632)">
          <path
             sodipodi:nodetypes="sssss"
             inkscape:connector-curvature="0"
             id="path6901-1-5"
             d="m 366.01067,445.89311 c 0,10.38456 -7.11897,13.8978 -15.6925,13.8978 -8.57353,0 -15.35501,-3.51324 -15.35501,-13.8978 0,-10.38457 7.82953,-19.38048 16.02996,-16.35035 13.55125,5.00729 15.01755,5.96578 15.01755,16.35035 z"
             style="fill:#1c1c24;stroke:#535d6c;stroke-width:1.05050468;stroke-linejoin:round;stroke-miterlimit:4" />
          <path
             inkscape:connector-curvature="0"
             id="path6904-1-2"
             d="m 347.53686,435.95308 c -1.98073,0 -3.71602,0.87545 -4.47713,2.12309 -0.44224,-0.0972 -0.8924,-0.16331 -1.37758,-0.16331 -2.68989,0 -4.89041,1.61578 -4.89041,3.59291 0,1.36853 1.08214,2.54139 2.61741,3.1438 -0.1601,0.35468 -0.27552,0.74905 -0.27552,1.14321 0,0.93999 0.53695,1.77015 1.34314,2.40888 -0.34683,0.77027 -0.55104,1.67264 -0.55104,2.65387 0,2.74267 1.57594,4.9811 3.51283,4.9811 1.93689,0 3.51282,-2.23843 3.51282,-4.9811 0,-0.75157 -0.13334,-1.44375 -0.34439,-2.08227 0.48358,-0.22427 0.89099,-0.48528 1.23983,-0.81656 0.8903,0.71317 2.16104,1.18403 3.58169,1.18403 2.6899,0 4.85596,-1.6158 4.85596,-3.59292 0,-0.88929 -0.44073,-1.7012 -1.17093,-2.32724 2.12808,-0.3834 3.71946,-1.78805 3.71946,-3.47043 0,-1.97712 -2.20052,-3.5521 -4.89041,-3.5521 -1.15103,0 -2.1971,0.28505 -3.03067,0.77576 -0.87597,-0.6211 -2.06183,-1.02072 -3.37506,-1.02072 z m -0.3444,7.145 c 0.11379,0.004 0.22859,0 0.3444,0 0.13192,0 0.24955,0.008 0.37883,0 -0.11019,0.0849 -0.21146,0.19319 -0.30996,0.2858 -0.12968,-0.10446 -0.26772,-0.1932 -0.41327,-0.2858 z"
             style="opacity:0.447;fill:#e3dbdb;stroke:#1c1c24;stroke-width:1.19994259;stroke-linejoin:round;stroke-miterlimit:4;stroke-dasharray:none" />
        </g>
        <g
           transform="matrix(0,1,-1,0,760.07254,175.69419)"
           id="g5055">
          <path
             style="fill:#1c1c24;stroke:#535d6c;stroke-width:1.05050468;stroke-linejoin:round;stroke-miterlimit:4"
             d="m 366.01067,445.89311 c 0,10.38456 -7.11897,13.8978 -15.6925,13.8978 -8.57353,0 -15.35501,-3.51324 -15.35501,-13.8978 0,-10.38457 7.82953,-19.38048 16.02996,-16.35035 13.55125,5.00729 15.01755,5.96578 15.01755,16.35035 z"
             id="path5057"
             inkscape:connector-curvature="0"
             sodipodi:nodetypes="sssss" />
          <path
             style="opacity:0.447;fill:#e3dbdb;stroke:#1c1c24;stroke-width:1.19994259;stroke-linejoin:round;stroke-miterlimit:4;stroke-dasharray:none"
             d="m 347.53686,435.95308 c -1.98073,0 -3.71602,0.87545 -4.47713,2.12309 -0.44224,-0.0972 -0.8924,-0.16331 -1.37758,-0.16331 -2.68989,0 -4.89041,1.61578 -4.89041,3.59291 0,1.36853 1.08214,2.54139 2.61741,3.1438 -0.1601,0.35468 -0.27552,0.74905 -0.27552,1.14321 0,0.93999 0.53695,1.77015 1.34314,2.40888 -0.34683,0.77027 -0.55104,1.67264 -0.55104,2.65387 0,2.74267 1.57594,4.9811 3.51283,4.9811 1.93689,0 3.51282,-2.23843 3.51282,-4.9811 0,-0.75157 -0.13334,-1.44375 -0.34439,-2.08227 0.48358,-0.22427 0.89099,-0.48528 1.23983,-0.81656 0.8903,0.71317 2.16104,1.18403 3.58169,1.18403 2.6899,0 4.85596,-1.6158 4.85596,-3.59292 0,-0.88929 -0.44073,-1.7012 -1.17093,-2.32724 2.12808,-0.3834 3.71946,-1.78805 3.71946,-3.47043 0,-1.97712 -2.20052,-3.5521 -4.89041,-3.5521 -1.15103,0 -2.1971,0.28505 -3.03067,0.77576 -0.87597,-0.6211 -2.06183,-1.02072 -3.37506,-1.02072 z m -0.3444,7.145 c 0.11379,0.004 0.22859,0 0.3444,0 0.13192,0 0.24955,0.008 0.37883,0 -0.11019,0.0849 -0.21146,0.19319 -0.30996,0.2858 -0.12968,-0.10446 -0.26772,-0.1932 -0.41327,-0.2858 z"
             id="path5059"
             inkscape:connector-curvature="0" />
        </g>
        <g
           id="g5073"
           transform="matrix(-1,0,0,-1,698.18168,970.55257)">
          <path
             sodipodi:nodetypes="sssss"
             inkscape:connector-curvature="0"
             id="path5075"
             d="m 366.01067,445.89311 c 0,10.38456 -7.11897,13.8978 -15.6925,13.8978 -8.57353,0 -15.35501,-3.51324 -15.35501,-13.8978 0,-10.38457 7.82953,-19.38048 16.02996,-16.35035 13.55125,5.00729 15.01755,5.96578 15.01755,16.35035 z"
             style="fill:#1c1c24;stroke:#535d6c;stroke-width:1.05050468;stroke-linejoin:round;stroke-miterlimit:4" />
          <path
             inkscape:connector-curvature="0"
             id="path5077"
             d="m 347.53686,435.95308 c -1.98073,0 -3.71602,0.87545 -4.47713,2.12309 -0.44224,-0.0972 -0.8924,-0.16331 -1.37758,-0.16331 -2.68989,0 -4.89041,1.61578 -4.89041,3.59291 0,1.36853 1.08214,2.54139 2.61741,3.1438 -0.1601,0.35468 -0.27552,0.74905 -0.27552,1.14321 0,0.93999 0.53695,1.77015 1.34314,2.40888 -0.34683,0.77027 -0.55104,1.67264 -0.55104,2.65387 0,2.74267 1.57594,4.9811 3.51283,4.9811 1.93689,0 3.51282,-2.23843 3.51282,-4.9811 0,-0.75157 -0.13334,-1.44375 -0.34439,-2.08227 0.48358,-0.22427 0.89099,-0.48528 1.23983,-0.81656 0.8903,0.71317 2.16104,1.18403 3.58169,1.18403 2.6899,0 4.85596,-1.6158 4.85596,-3.59292 0,-0.88929 -0.44073,-1.7012 -1.17093,-2.32724 2.12808,-0.3834 3.71946,-1.78805 3.71946,-3.47043 0,-1.97712 -2.20052,-3.5521 -4.89041,-3.5521 -1.15103,0 -2.1971,0.28505 -3.03067,0.77576 -0.87597,-0.6211 -2.06183,-1.02072 -3.37506,-1.02072 z m -0.3444,7.145 c 0.11379,0.004 0.22859,0 0.3444,0 0.13192,0 0.24955,0.008 0.37883,0 -0.11019,0.0849 -0.21146,0.19319 -0.30996,0.2858 -0.12968,-0.10446 -0.26772,-0.1932 -0.41327,-0.2858 z"
             style="opacity:0.447;fill:#e3dbdb;stroke:#1c1c24;stroke-width:1.19994259;stroke-linejoin:round;stroke-miterlimit:4;stroke-dasharray:none" />
        </g>
        <g
           transform="matrix(0,-1,1,0,-32.584992,876.66802)"
           id="g5079">
          <path
             style="fill:#1c1c24;stroke:#535d6c;stroke-width:1.05050468;stroke-linejoin:round;stroke-miterlimit:4"
             d="m 366.01067,445.89311 c 0,10.38456 -7.11897,13.8978 -15.6925,13.8978 -8.57353,0 -15.35501,-3.51324 -15.35501,-13.8978 0,-10.38457 7.82953,-19.38048 16.02996,-16.35035 13.55125,5.00729 15.01755,5.96578 15.01755,16.35035 z"
             id="path5081"
             inkscape:connector-curvature="0"
             sodipodi:nodetypes="sssss" />
          <path
             style="opacity:0.447;fill:#e3dbdb;stroke:#1c1c24;stroke-width:1.19994259;stroke-linejoin:round;stroke-miterlimit:4;stroke-dasharray:none"
             d="m 347.53686,435.95308 c -1.98073,0 -3.71602,0.87545 -4.47713,2.12309 -0.44224,-0.0972 -0.8924,-0.16331 -1.37758,-0.16331 -2.68989,0 -4.89041,1.61578 -4.89041,3.59291 0,1.36853 1.08214,2.54139 2.61741,3.1438 -0.1601,0.35468 -0.27552,0.74905 -0.27552,1.14321 0,0.93999 0.53695,1.77015 1.34314,2.40888 -0.34683,0.77027 -0.55104,1.67264 -0.55104,2.65387 0,2.74267 1.57594,4.9811 3.51283,4.9811 1.93689,0 3.51282,-2.23843 3.51282,-4.9811 0,-0.75157 -0.13334,-1.44375 -0.34439,-2.08227 0.48358,-0.22427 0.89099,-0.48528 1.23983,-0.81656 0.8903,0.71317 2.16104,1.18403 3.58169,1.18403 2.6899,0 4.85596,-1.6158 4.85596,-3.59292 0,-0.88929 -0.44073,-1.7012 -1.17093,-2.32724 2.12808,-0.3834 3.71946,-1.78805 3.71946,-3.47043 0,-1.97712 -2.20052,-3.5521 -4.89041,-3.5521 -1.15103,0 -2.1971,0.28505 -3.03067,0.77576 -0.87597,-0.6211 -2.06183,-1.02072 -3.37506,-1.02072 z m -0.3444,7.145 c 0.11379,0.004 0.22859,0 0.3444,0 0.13192,0 0.24955,0.008 0.37883,0 -0.11019,0.0849 -0.21146,0.19319 -0.30996,0.2858 -0.12968,-0.10446 -0.26772,-0.1932 -0.41327,-0.2858 z"
             id="path5083"
             inkscape:connector-curvature="0" />
        </g>
      </g>
      <g
         transform="translate(-92.17451,2.488395e-6)"
         id="g5105">
        <path
           sodipodi:type="star"
           style="fill:#0b0b28;stroke:#1c1c24;stroke-width:0.34151828;stroke-linejoin:round;stroke-miterlimit:4;stroke-dasharray:none"
           id="path6843-3-2"
           sodipodi:sides="10"
           sodipodi:cx="78.360992"
           sodipodi:cy="70.404594"
           sodipodi:r1="14.972373"
           sodipodi:r2="10.07869"
           sodipodi:arg1="0.78539816"
           sodipodi:arg2="1.4788906"
           inkscape:flatsided="false"
           inkscape:rounded="0"
           inkscape:randomized="0"
           d="m 88.948059,80.991661 -9.662081,-0.550913 1.41721,4.751885 -7.49297,-6.124926 -1.646541,4.677369 -2.461798,-9.359426 -4.081369,2.81626 3.509697,-9.018944 -4.957253,-0.120567 8.140606,-5.233531 -3.939634,-3.01134 9.662081,0.550913 -1.41721,-4.751885 7.492969,6.124926 1.646541,-4.67737 2.461799,9.359427 4.081368,-2.81626 -3.509696,9.018944 4.957253,0.120567 -8.140606,5.23353 z"
           inkscape:transform-center-x="0.7912308"
           inkscape:transform-center-y="-1.1071461"
           transform="matrix(1.0695046,0,0,1.0700975,275.27935,450.84132)" />
        <path
           inkscape:transform-center-y="-0.7916642"
           inkscape:transform-center-x="-1.1065406"
           d="m 121.80521,78.8488 -9.66208,-0.550912 1.4172,4.751884 -7.49296,-6.124926 -1.64655,4.67737 -2.46179,-9.359426 -4.081372,2.816259 3.509692,-9.018943 -4.957249,-0.120567 8.140609,-5.233531 -3.93964,-3.01134 9.66208,0.550912 -1.41721,-4.751884 7.49297,6.124926 1.64654,-4.67737 2.4618,9.359426 4.08137,-2.816259 -3.50969,9.018943 4.95725,0.120567 -8.14061,5.233531 z"
           inkscape:randomized="0"
           inkscape:rounded="0"
           inkscape:flatsided="false"
           sodipodi:arg2="1.4788906"
           sodipodi:arg1="0.78539816"
           sodipodi:r2="10.07869"
           sodipodi:r1="14.972373"
           sodipodi:cy="68.261734"
           sodipodi:cx="111.21814"
           sodipodi:sides="10"
           id="path5085"
           style="fill:#0b0b28;stroke:#1c1c24;stroke-width:0.34151828;stroke-linejoin:round;stroke-miterlimit:4;stroke-dasharray:none"
           sodipodi:type="star"
           transform="matrix(0,1.0700975,-1.0695046,0,400.0961,407.16685)" />
        <path
           transform="matrix(-1.0695046,0,0,-1.0700975,231.59244,452.4488)"
           sodipodi:type="star"
           style="fill:#0b0b28;stroke:#1c1c24;stroke-width:0.34151828;stroke-linejoin:round;stroke-miterlimit:4;stroke-dasharray:none"
           id="path5087"
           sodipodi:sides="10"
           sodipodi:cx="-149.12631"
           sodipodi:cy="-68.902412"
           sodipodi:r1="14.972373"
           sodipodi:r2="10.07869"
           sodipodi:arg1="0.78539816"
           sodipodi:arg2="1.4788906"
           inkscape:flatsided="false"
           inkscape:rounded="0"
           inkscape:randomized="0"
           d="m -138.53925,-58.315346 -9.66208,-0.550913 1.41721,4.751885 -7.49297,-6.124926 -1.64654,4.67737 -2.4618,-9.359427 -4.08136,2.81626 3.50969,-9.018944 -4.95725,-0.120567 8.14061,-5.23353 -3.93964,-3.011341 9.66208,0.550913 -1.41721,-4.751885 7.49297,6.124927 1.64654,-4.67737 2.4618,9.359426 4.08137,-2.81626 -3.5097,9.018944 4.95726,0.120567 -8.14061,5.233531 z"
           inkscape:transform-center-x="-0.79121784"
           inkscape:transform-center-y="1.1071544" />
        <path
           inkscape:transform-center-y="0.79166096"
           inkscape:transform-center-x="1.1065494"
           d="m -174.25354,-57.601059 -9.66208,-0.550913 1.41721,4.751885 -7.49297,-6.124927 -1.64654,4.67737 -2.4618,-9.359426 -4.08137,2.81626 3.5097,-9.018944 -4.95725,-0.120567 8.1406,-5.233531 -3.93963,-3.01134 9.66208,0.550913 -1.41721,-4.751885 7.49297,6.124926 1.64654,-4.67737 2.4618,9.359426 4.08137,-2.816259 -3.5097,9.018944 4.95725,0.120567 -8.1406,5.23353 z"
           inkscape:randomized="0"
           inkscape:rounded="0"
           inkscape:flatsided="false"
           sodipodi:arg2="1.4788906"
           sodipodi:arg1="0.78539816"
           sodipodi:r2="10.07869"
           sodipodi:r1="14.972373"
           sodipodi:cy="-68.188126"
           sodipodi:cx="-184.84061"
           sodipodi:sides="10"
           id="path5089"
           style="fill:#0b0b28;stroke:#1c1c24;stroke-width:0.34151828;stroke-linejoin:round;stroke-miterlimit:4;stroke-dasharray:none"
           sodipodi:type="star"
           transform="matrix(0,-1.0700975,1.0695046,0,368.02044,328.38363)" />
      </g>
    </g>
  </g>
</svg>
