<?xml version="1.0" encoding="UTF-8" standalone="no"?>
<!-- Created with Inkscape (http://www.inkscape.org/) -->

<svg
   xmlns:dc="http://purl.org/dc/elements/1.1/"
   xmlns:cc="http://creativecommons.org/ns#"
   xmlns:rdf="http://www.w3.org/1999/02/22-rdf-syntax-ns#"
   xmlns:svg="http://www.w3.org/2000/svg"
   xmlns="http://www.w3.org/2000/svg"
   xmlns:sodipodi="http://sodipodi.sourceforge.net/DTD/sodipodi-0.dtd"
   xmlns:inkscape="http://www.inkscape.org/namespaces/inkscape"
   width="93.141602mm"
   height="59.011162mm"
   viewBox="0 0 330.0293 209.09467"
   id="svg2"
   version="1.1"
   inkscape:version="0.91 r13725"
   sodipodi:docname="gameover.svg"
   inkscape:export-filename="/home/gt/dev/tinycoderu/games/sparklingtail-ng/assets/gameover.png"
   inkscape:export-xdpi="90"
   inkscape:export-ydpi="90">
  <sodipodi:namedview
     id="base"
     pagecolor="#ffffff"
     bordercolor="#666666"
     borderopacity="1.0"
     inkscape:pageopacity="0.0"
     inkscape:pageshadow="2"
     inkscape:zoom="0.98994949"
     inkscape:cx="93.972307"
     inkscape:cy="25.940496"
     inkscape:document-units="px"
     inkscape:current-layer="layer1"
     showgrid="false"
     inkscape:window-width="2558"
     inkscape:window-height="1438"
     inkscape:window-x="1920"
     inkscape:window-y="0"
     inkscape:window-maximized="0"
     showguides="false"
     fit-margin-top="0"
     fit-margin-left="0"
     fit-margin-right="0"
     fit-margin-bottom="0" />
  <defs
     id="defs4">
    <filter
       id="filter4142"
       style="color-interpolation-filters:sRGB"
       inkscape:label="Pixel Smear"
       inkscape:menu="Distort"
       inkscape:menu-tooltip="Van Gogh painting effect for bitmaps"
       x="-0.15000001"
       y="-0.15000001"
       width="1.3"
       height="1.3">
      <feTurbulence
         id="feTurbulence4144"
         seed="5"
         baseFrequency="0.25 0.4"
         numOctaves="3"
         type="fractalNoise" />
      <feColorMatrix
         id="feColorMatrix4146"
         values="1 0 0 0 0 0 1 0 0 0 0 0 1 0 0 0 0 0 1 0 "
         result="result5" />
      <feComposite
         id="feComposite4148"
         in2="result5"
         operator="in"
         in="SourceGraphic" />
      <feMorphology
         id="feMorphology4150"
         result="result3"
         radius="1.5"
         operator="dilate" />
      <feTurbulence
         id="feTurbulence4152"
         seed="7"
         type="fractalNoise"
         baseFrequency="0.03"
         numOctaves="5" />
      <feGaussianBlur
         id="feGaussianBlur4154"
         result="result91"
         stdDeviation="0.5" />
      <feDisplacementMap
         id="feDisplacementMap4156"
         in2="result91"
         result="result4"
         scale="27"
         yChannelSelector="G"
         xChannelSelector="R"
         in="result3" />
      <feComposite
         id="feComposite4158"
         in2="result4"
         operator="arithmetic"
         result="result2"
         k1="1.3"
         k3="0.8"
         in="result4"
         k2="0"
         k4="0" />
      <feBlend
         id="feBlend4160"
         in="result2"
         mode="screen"
         in2="result2" />
    </filter>
    <filter
       inkscape:label="Feather"
       inkscape:menu="Image Effects"
       inkscape:menu-tooltip="Sharpen edges and boundaries within the object, force=0.15"
       style="color-interpolation-filters:sRGB"
       id="filter6795">
      <feConvolveMatrix
         order="3 3"
         kernelMatrix="0 -0.15 0 -0.15 1.6 -0.15 0 -0.15 0"
         divisor="1"
         in="SourceGraphic"
         targetX="1"
         targetY="1"
         id="feConvolveMatrix6797"
         result="fbSourceGraphic" />
      <feColorMatrix
         result="fbSourceGraphicAlpha"
         in="fbSourceGraphic"
         values="0 0 0 -1 0 0 0 0 -1 0 0 0 0 -1 0 0 0 0 1 0"
         id="feColorMatrix6799" />
      <feGaussianBlur
         id="feGaussianBlur6801"
         stdDeviation="5"
         result="blur"
         in="fbSourceGraphic" />
      <feComposite
         id="feComposite6803"
         in2="blur"
         in="fbSourceGraphic"
         operator="atop"
         result="composite1" />
      <feComposite
         id="feComposite6805"
         in2="composite1"
         operator="in"
         result="composite2" />
      <feComposite
         id="feComposite6807"
         in2="composite2"
         operator="in"
         result="composite3" />
    </filter>
    <filter
       inkscape:label="Pixellize"
       inkscape:menu="Pixel tools"
       inkscape:menu-tooltip="Reduce or remove antialiasing around shapes"
       style="color-interpolation-filters:sRGB"
       id="filter6809">
      <feTurbulence
         type="fractalNoise"
         numOctaves="5"
         baseFrequency="1"
         seed="0"
         result="result0"
         id="feTurbulence6811" />
      <feConvolveMatrix
         kernelMatrix="-2 0 -2 0 -10 0 -2 0 -2 "
         order="3 3"
         result="result5"
         id="feConvolveMatrix6813" />
      <feColorMatrix
         result="result4"
         values="0"
         type="saturate"
         in="result5"
         id="feColorMatrix6815" />
      <feComposite
         in2="result4"
         in="SourceGraphic"
         operator="arithmetic"
         k1="1.5"
         k2="0.5"
         k3="0.5"
         result="result2"
         id="feComposite6817"
         k4="0" />
      <feBlend
         result="result6"
         in2="result4"
         mode="normal"
         id="feBlend6819" />
      <feComposite
         in2="SourceGraphic"
         in="result6"
         operator="in"
         result="fbSourceGraphic"
         id="feComposite6821" />
      <feColorMatrix
         result="fbSourceGraphicAlpha"
         in="fbSourceGraphic"
         values="0 0 0 -1 0 0 0 0 -1 0 0 0 0 -1 0 0 0 0 1 0"
         id="feColorMatrix6823" />
      <feColorMatrix
         id="feColorMatrix6825"
         values="1 0 0 0 0 0 1 0 0 0 0 0 1 0 0 0 0 0 1000 -500 "
         in="fbSourceGraphic" />
    </filter>
    <filter
       inkscape:label="Light Eraser"
       style="color-interpolation-filters:sRGB"
       id="filter6850">
      <feColorMatrix
         values="1 0 0 0 0 0 1 0 0 0 0 0 1 0 0 -21.25 -71.54 -7.21 50 0 "
         result="colormatrix"
         id="feColorMatrix6852" />
      <feComposite
         in2="colormatrix"
         operator="arithmetic"
         k2="1"
         result="fbSourceGraphic"
         id="feComposite6854"
         k1="0"
         k3="0"
         k4="0" />
      <feColorMatrix
         result="fbSourceGraphicAlpha"
         in="fbSourceGraphic"
         values="0 0 0 -1 0 0 0 0 -1 0 0 0 0 -1 0 0 0 0 1 0"
         id="feColorMatrix6856" />
      <feColorMatrix
         id="feColorMatrix6858"
         values="1 0 0 0 0 0 1 0 0 0 0 0 1 0 0 -21.25 -71.54 -7.21 50 0 "
         result="colormatrix"
         in="fbSourceGraphic" />
      <feComposite
         id="feComposite6860"
         in2="colormatrix"
         operator="arithmetic"
         k2="1"
         result="composite"
         k1="0"
         k3="0"
         k4="0" />
    </filter>
    <filter
       inkscape:label="Evanescent"
       inkscape:menu="Blurs"
       inkscape:menu-tooltip="Blur the contents of objects, preserving the outline and adding progressive transparency at edges"
       style="color-interpolation-filters:sRGB"
       id="filter6872">
      <feGaussianBlur
         result="result6"
         stdDeviation="3"
         in="SourceGraphic"
         id="feGaussianBlur6874" />
      <feColorMatrix
         values="1 0 0 0 0 0 1 0 0 0 0 0 1 0 0 0 0 0 1 0 "
         result="result7"
         in="SourceGraphic"
         id="feColorMatrix6876" />
      <feComposite
         operator="in"
         in="result6"
         in2="result7"
         id="feComposite6878" />
    </filter>
    <filter
       inkscape:label="Gold Splatter"
       x="-0.25"
       y="-0.25"
       height="1.5"
       width="1.5"
       inkscape:menu="Materials"
       inkscape:menu-tooltip="Splattered cast metal, with golden highlights"
       style="color-interpolation-filters:sRGB"
       id="filter6890">
      <feGaussianBlur
         in="SourceAlpha"
         stdDeviation="1"
         result="result91"
         id="feGaussianBlur6892" />
      <feComposite
         result="fbSourceGraphic"
         operator="in"
         in="SourceGraphic"
         in2="result91"
         id="feComposite6894" />
      <feGaussianBlur
         result="result1"
         in="fbSourceGraphic"
         stdDeviation="1"
         id="feGaussianBlur6896" />
      <feTurbulence
         result="result0"
         numOctaves="7"
         baseFrequency="0.074 0.084"
         type="fractalNoise"
         id="feTurbulence6898" />
      <feDisplacementMap
         result="result2"
         scale="80"
         yChannelSelector="G"
         xChannelSelector="A"
         in="result1"
         in2="result0"
         id="feDisplacementMap6900" />
      <feColorMatrix
         type="saturate"
         values="1"
         result="result3"
         id="feColorMatrix6902" />
      <feGaussianBlur
         result="result4"
         in="fbSourceGraphic"
         stdDeviation="1"
         id="feGaussianBlur6904" />
      <feComposite
         operator="atop"
         result="fbSourceGraphic"
         in="result4"
         in2="result3"
         id="feComposite6906" />
      <feGaussianBlur
         result="result0"
         in="fbSourceGraphic"
         stdDeviation="1"
         id="feGaussianBlur6908" />
      <feTurbulence
         baseFrequency="0.062"
         seed="488"
         numOctaves="8"
         result="result1"
         type="fractalNoise"
         id="feTurbulence6910" />
      <feComposite
         result="result2"
         operator="out"
         in2="result1"
         in="result0"
         id="feComposite6912" />
      <feSpecularLighting
         lighting-color="#f4c828"
         surfaceScale="2"
         result="result4"
         specularConstant="2"
         specularExponent="40"
         in="result2"
         id="feSpecularLighting6914">
        <feDistantLight
           elevation="62"
           azimuth="225"
           id="feDistantLight6916" />
      </feSpecularLighting>
      <feComposite
         in2="result2"
         in="result4"
         operator="atop"
         result="result92"
         id="feComposite6918" />
      <feBlend
         mode="multiply"
         in2="result92"
         id="feBlend6920" />
    </filter>
    <filter
       style="color-interpolation-filters:sRGB"
       inkscape:label="Electrize"
       id="filter6952">
      <feGaussianBlur
         stdDeviation="2"
         result="blur"
         id="feGaussianBlur6954" />
      <feComponentTransfer
         in="blur"
         result="component"
         id="feComponentTransfer6956">
        <feFuncR
           type="table"
           tableValues="0 1 0 1 0"
           id="feFuncR6958" />
        <feFuncG
           type="table"
           tableValues="0 1 0 1 0"
           id="feFuncG6960" />
        <feFuncB
           type="table"
           tableValues="0 1 0 1 0"
           id="feFuncB6962" />
      </feComponentTransfer>
    </filter>
    <filter
       y="-0.2"
       width="1.2"
       height="1.4"
       x="-0.1"
       inkscape:label="Fire"
       inkscape:menu="Protrusions"
       inkscape:menu-tooltip="Edges of object are on fire"
       style="color-interpolation-filters:sRGB"
       id="filter6974">
      <feMorphology
         result="result1"
         radius="2.4"
         operator="dilate"
         id="feMorphology6976" />
      <feTurbulence
         baseFrequency="0.09 0.028"
         numOctaves="1"
         id="feTurbulence6978" />
      <feColorMatrix
         result="result2"
         values="2 0 0 0 0 0 2 0 0 0 0 0 0 0 0 0 0 0 1 0"
         id="feColorMatrix6980" />
      <feDisplacementMap
         result="result4"
         scale="10.31941"
         yChannelSelector="G"
         xChannelSelector="R"
         in="result1"
         in2="result2"
         id="feDisplacementMap6982" />
      <feFlood
         result="result3"
         flood-opacity="1"
         flood-color="rgb(255,159,54)"
         id="feFlood6984" />
      <feMorphology
         radius="3.8"
         result="result7"
         in="result4"
         id="feMorphology6986" />
      <feGaussianBlur
         result="result7"
         in="result7"
         stdDeviation="2.4"
         id="feGaussianBlur6988" />
      <feComposite
         result="result5"
         in2="result4"
         in="result3"
         operator="in"
         id="feComposite6990" />
      <feComposite
         operator="out"
         in2="result7"
         id="feComposite6992" />
      <feOffset
         result="result6"
         dy="-7"
         dx="-4.5"
         id="feOffset6994" />
      <feGaussianBlur
         result="result7"
         stdDeviation="4.8"
         id="feGaussianBlur6996" />
      <feComposite
         in="SourceGraphic"
         in2="result6"
         id="feComposite6998" />
      <feComposite
         in2="result7"
         id="feComposite7000" />
    </filter>
    <filter
       inkscape:label="Ink Bleed"
       inkscape:menu="Protrusions"
       inkscape:menu-tooltip="Inky splotches underneath the object"
       style="color-interpolation-filters:sRGB"
       id="filter7012">
      <feGaussianBlur
         result="result1"
         in="SourceGraphic"
         stdDeviation="1.3"
         id="feGaussianBlur7014" />
      <feTurbulence
         result="result0"
         numOctaves="4"
         baseFrequency="0.034"
         id="feTurbulence7016" />
      <feDisplacementMap
         result="result2"
         scale="19.6"
         yChannelSelector="G"
         xChannelSelector="R"
         in="result1"
         in2="result0"
         id="feDisplacementMap7018" />
      <feColorMatrix
         values="2 0 0 0 0 0 2 0 0 0 0 0 2 0 0 0 0 0 0.7 0"
         result="result3"
         id="feColorMatrix7020" />
      <feGaussianBlur
         result="result4"
         in="SourceGraphic"
         stdDeviation="1.1"
         id="feGaussianBlur7022" />
      <feComposite
         in="result4"
         in2="result3"
         id="feComposite7024" />
    </filter>
    <filter
       inkscape:label="Cubes"
       inkscape:menu="Scatter"
       inkscape:menu-tooltip="Scattered cubes; adjust the Morphology primitive to vary size"
       style="color-interpolation-filters:sRGB"
       id="filter7036">
      <feTurbulence
         baseFrequency="0.14"
         numOctaves="1"
         type="fractalNoise"
         id="feTurbulence7038" />
      <feColorMatrix
         values="1 0 0 0 0 0 1 0 0 0 0 0 1 0 0 0 0 0 6 -3.5 "
         result="result5"
         id="feColorMatrix7040" />
      <feComposite
         in2="result5"
         operator="in"
         in="SourceGraphic"
         result="result6"
         id="feComposite7042" />
      <feMorphology
         result="result3"
         radius="5"
         operator="dilate"
         in="result6"
         id="feMorphology7044" />
      <feDisplacementMap
         result="result4"
         scale="0"
         yChannelSelector="A"
         xChannelSelector="R"
         in="result3"
         in2="result3"
         id="feDisplacementMap7046" />
      <feComposite
         in2="result4"
         operator="arithmetic"
         result="result2"
         k1="1"
         k3="1"
         id="feComposite7048"
         k2="0"
         k4="0" />
      <feBlend
         mode="darken"
         in="result2"
         in2="result2"
         id="feBlend7050" />
      <feConvolveMatrix
         order="3 3"
         kernelMatrix="2 0 0 0 1 0 0 0 -1 "
         targetX="1"
         targetY="1"
         divisor="2"
         edgeMode="duplicate"
         id="feConvolveMatrix7052" />
    </filter>
    <filter
       inkscape:label="Pixellize"
       inkscape:menu="Pixel tools"
       inkscape:menu-tooltip="Reduce or remove antialiasing around shapes"
       style="color-interpolation-filters:sRGB"
       id="filter7064">
      <feColorMatrix
         values="1 0 0 0 0 0 1 0 0 0 0 0 1 0 0 0 0 0 1000 -500 "
         id="feColorMatrix7066" />
    </filter>
    <filter
       inkscape:label="Frost"
       inkscape:menu="Overlays"
       inkscape:menu-tooltip="Flake-like white splotches"
       style="color-interpolation-filters:sRGB"
       id="filter7078">
      <feTurbulence
         type="fractalNoise"
         numOctaves="5"
         baseFrequency="0.143"
         id="feTurbulence7080" />
      <feColorMatrix
         values="1 0 0 0 0 0 1 0 0 0 0 0 1 0 0 0 0 0 5 -3"
         id="feColorMatrix7082" />
      <feComposite
         operator="in"
         in2="SourceAlpha"
         id="feComposite7084" />
      <feMorphology
         operator="dilate"
         radius="2.7"
         result="result3"
         id="feMorphology7086" />
      <feTurbulence
         numOctaves="2"
         baseFrequency="0.121"
         result="result91"
         id="feTurbulence7088" />
      <feDisplacementMap
         in="result3"
         xChannelSelector="R"
         yChannelSelector="A"
         scale="10"
         result="result4"
         in2="result91"
         id="feDisplacementMap7090" />
      <feFlood
         flood-opacity="1"
         flood-color="rgb(255,255,255)"
         id="feFlood7092" />
      <feComposite
         result="result2"
         operator="in"
         in2="result4"
         id="feComposite7094" />
      <feComposite
         in="result2"
         operator="over"
         in2="SourceGraphic"
         id="feComposite7096" />
    </filter>
    <filter
       inkscape:label="Cubes"
       height="2"
       width="1.3"
       y="-0.5"
       x="-0.15000001"
       inkscape:menu="Scatter"
       inkscape:menu-tooltip="Scattered cubes; adjust the Morphology primitive to vary size"
       style="color-interpolation-filters:sRGB"
       id="filter7108">
      <feConvolveMatrix
         order="3 3"
         kernelMatrix="0 -1 0 0 -1 0 0 2 0"
         result="result1"
         divisor="6.03"
         id="feConvolveMatrix7110" />
      <feTurbulence
         numOctaves="1"
         baseFrequency="0.078 0.010"
         result="result0"
         id="feTurbulence7112" />
      <feColorMatrix
         result="result2"
         values="1 0 0 0 0 0 1 0 0 0 0 0 1 0 0 0 0 0 10 -3.5"
         id="feColorMatrix7114" />
      <feComposite
         in2="result2"
         in="result1"
         operator="in"
         id="feComposite7116" />
      <feMorphology
         operator="dilate"
         radius="1 30"
         id="feMorphology7118" />
      <feColorMatrix
         values="1 0 0 0 0 0 1 0 0 0 0 0 1 0 0 0 0 0 50 0"
         result="result3"
         id="feColorMatrix7120" />
      <feOffset
         dx="0"
         dy="1.4"
         result="result4"
         id="feOffset7122" />
      <feTurbulence
         numOctaves="2"
         baseFrequency="0.032 0.025"
         result="result8"
         id="feTurbulence7124" />
      <feColorMatrix
         values="0 0 0 0 0.52 0 -0.4 0 0 0.45 0 0 1 0 0 0 0 0 1 0"
         result="result91"
         id="feColorMatrix7126" />
      <feDisplacementMap
         in="result4"
         xChannelSelector="R"
         yChannelSelector="G"
         scale="100"
         result="result9"
         in2="result91"
         id="feDisplacementMap7128" />
      <feComposite
         in="SourceGraphic"
         in2="result9"
         id="feComposite7130"
         result="fbSourceGraphic" />
      <feColorMatrix
         result="fbSourceGraphicAlpha"
         in="fbSourceGraphic"
         values="0 0 0 -1 0 0 0 0 -1 0 0 0 0 -1 0 0 0 0 1 0"
         id="feColorMatrix7132" />
      <feTurbulence
         id="feTurbulence7134"
         baseFrequency="0.14"
         numOctaves="1"
         type="fractalNoise" />
      <feColorMatrix
         id="feColorMatrix7136"
         values="1 0 0 0 0 0 1 0 0 0 0 0 1 0 0 0 0 0 6 -3.5 "
         result="result5" />
      <feComposite
         id="feComposite7138"
         in2="result5"
         operator="in"
         in="fbSourceGraphic"
         result="result6" />
      <feMorphology
         id="feMorphology7140"
         result="result3"
         radius="5"
         operator="dilate"
         in="result6" />
      <feDisplacementMap
         id="feDisplacementMap7142"
         in2="result3"
         result="result4"
         scale="0"
         yChannelSelector="A"
         xChannelSelector="R"
         in="result3" />
      <feComposite
         id="feComposite7144"
         in2="result4"
         operator="arithmetic"
         result="result2"
         k1="1"
         k3="1"
         k2="0"
         k4="0" />
      <feBlend
         id="feBlend7146"
         in2="result2"
         mode="darken"
         in="result2" />
      <feConvolveMatrix
         id="feConvolveMatrix7148"
         order="3 3"
         kernelMatrix="2 0 0 0 1 0 0 0 -1 "
         targetX="1"
         targetY="1"
         divisor="2"
         edgeMode="duplicate" />
    </filter>
    <filter
       style="color-interpolation-filters:sRGB"
       inkscape:label="Edge Detect"
       id="filter7160">
      <feConvolveMatrix
         in="SourceGraphic"
         kernelMatrix="0 1 0 1 -4 1 0 1 0"
         order="3 3"
         bias="0"
         divisor="1"
         targetX="1"
         targetY="1"
         preserveAlpha="true"
         result="convolve"
         id="feConvolveMatrix7162" />
    </filter>
    <filter
       inkscape:label="Duochrome"
       inkscape:menu="Color"
       inkscape:menu-tooltip="Oversaturate colors which can be fluorescent in real world"
       style="color-interpolation-filters:sRGB"
       id="filter7174">
      <feColorMatrix
         type="hueRotate"
         values="0"
         id="feColorMatrix7176" />
      <feColorMatrix
         type="saturate"
         values="1"
         id="feColorMatrix7178" />
      <feColorMatrix
         type="matrix"
         values="2 -1 0 0 0 0 2 -1 0 0 -1 0 2 0 0 0 0 0 1 0 "
         id="feColorMatrix7180"
         result="fbSourceGraphic" />
      <feColorMatrix
         result="fbSourceGraphicAlpha"
         in="fbSourceGraphic"
         values="0 0 0 -1 0 0 0 0 -1 0 0 0 0 -1 0 0 0 0 1 0"
         id="feColorMatrix7182" />
      <feColorMatrix
         id="feColorMatrix7184"
         type="luminanceToAlpha"
         result="colormatrix1"
         in="fbSourceGraphic" />
      <feFlood
         id="feFlood7186"
         flood-opacity="1"
         flood-color="rgb(81,81,245)"
         result="flood1" />
      <feComposite
         id="feComposite7188"
         in2="colormatrix1"
         operator="out"
         result="composite1" />
      <feFlood
         id="feFlood7190"
         flood-opacity="1"
         flood-color="rgb(255,255,0)"
         result="flood2" />
      <feComposite
         id="feComposite7192"
         in2="colormatrix1"
         result="composite2"
         operator="in" />
      <feComposite
         id="feComposite7194"
         in2="composite1"
         in="composite2"
         k2="1"
         k3="1"
         operator="arithmetic"
         result="composite3"
         k1="0"
         k4="0" />
      <feColorMatrix
         id="feColorMatrix7196"
         in="composite3"
         type="matrix"
         values="2 -1 0 0 0 0 2 -1 0 0 -1 0 2 0 0 0 0 0 1 0 "
         result="colormatrix2" />
      <feComposite
         id="feComposite7198"
         in2="composite3"
         in="colormatrix2"
         operator="arithmetic"
         k2="0"
         result="composite4"
         k1="0"
         k3="0"
         k4="0" />
      <feBlend
         id="feBlend7200"
         in2="composite3"
         in="composite4"
         mode="normal"
         result="blend" />
      <feComposite
         id="feComposite7202"
         in2="fbSourceGraphic"
         operator="in" />
    </filter>
    <filter
       x="-0.25"
       y="-0.25"
       width="1.5"
       height="1.5"
       inkscape:menu-tooltip="Creates colorizable blotches which smoothly flow over the edges of the lines at their crossings"
       inkscape:menu="Protrusions"
       inkscape:label="Chewing Gum"
       style="color-interpolation-filters:sRGB"
       id="filter7214">
      <feFlood
         result="result4"
         flood-color="rgb(253,112,174)"
         flood-opacity="1"
         id="feFlood7216" />
      <feGaussianBlur
         result="result1"
         in="SourceAlpha"
         stdDeviation="15"
         id="feGaussianBlur7218" />
      <feComposite
         in2="result4"
         in="result1"
         result="result3"
         k4="-2"
         k2="4"
         operator="arithmetic"
         id="feComposite7220"
         k1="0"
         k3="0" />
      <feColorMatrix
         result="result2"
         values="1 0 0 0 0 0 1 0 0 0 0 0 1 0 0 0 0 0 10 -3"
         id="feColorMatrix7222" />
      <feComposite
         operator="in"
         in="result4"
         result="fbSourceGraphic"
         in2="result2"
         id="feComposite7224" />
      <feBlend
         in2="SourceGraphic"
         in="fbSourceGraphic"
         mode="normal"
         result="result5"
         id="feBlend7226" />
    </filter>
    <filter
       inkscape:label="Organic"
       inkscape:menu="Textures"
       inkscape:menu-tooltip="Bulging, knotty, slick 3D surface"
       style="color-interpolation-filters:sRGB"
       id="filter7238">
      <feTurbulence
         numOctaves="3"
         baseFrequency="0.037"
         result="result0"
         id="feTurbulence7240" />
      <feSpecularLighting
         specularExponent="24.29999924"
         surfaceScale="2"
         specularConstant="1"
         result="result1"
         id="feSpecularLighting7242">
        <feDistantLight
           elevation="45"
           azimuth="225"
           id="feDistantLight7244" />
      </feSpecularLighting>
      <feDiffuseLighting
         in="result0"
         surfaceScale="3"
         diffuseConstant="1.21000004"
         id="feDiffuseLighting7246">
        <feDistantLight
           azimuth="225"
           elevation="42"
           id="feDistantLight7248" />
      </feDiffuseLighting>
      <feBlend
         in2="SourceGraphic"
         mode="multiply"
         result="result91"
         id="feBlend7250" />
      <feComposite
         operator="arithmetic"
         in="result1"
         k2="1"
         k3="1"
         in2="result91"
         id="feComposite7252"
         k1="0"
         k4="0" />
      <feComposite
         in2="SourceAlpha"
         operator="in"
         result="result2"
         id="feComposite7254" />
    </filter>
    <filter
       style="color-interpolation-filters:sRGB"
       inkscape:label="Fat Oil"
       id="filter7266"
       inkscape:menu="Bevels"
       inkscape:menu-tooltip="Fat oil with some adjustable turbulence"
       height="1.4"
       width="1.4"
       y="-0.2"
       x="-0.2">
      <feConvolveMatrix
         order="3 3"
         kernelMatrix="1 1 1 0 0 0 -1 -1 -1"
         preserveAlpha="false"
         divisor="3"
         id="feConvolveMatrix7268" />
      <feMorphology
         operator="dilate"
         radius="1 3.5"
         id="feMorphology7270" />
      <feGaussianBlur
         stdDeviation="1.6270889487870621"
         result="result0"
         id="feGaussianBlur7272" />
      <feColorMatrix
         values="0 0 0 0 0 0 0 0 0 0 0 0 0 0 0 0 0 0 10 0"
         result="result1"
         id="feColorMatrix7274" />
      <feOffset
         dx="0"
         dy="1"
         result="result5"
         id="feOffset7276" />
      <feDiffuseLighting
         in="result0"
         diffuseConstant="2.26130652"
         surfaceScale="1"
         id="feDiffuseLighting7278">
        <feDistantLight
           azimuth="225"
           elevation="32"
           id="feDistantLight7280" />
      </feDiffuseLighting>
      <feComposite
         in2="result1"
         operator="in"
         result="result2"
         id="feComposite7282" />
      <feColorMatrix
         values="0.4 0 0 0 0.6 0 0.4 0 0 0.6 0 0 0 0 1 0 0 0 1 0"
         result="result4"
         id="feColorMatrix7284" />
      <feComposite
         in2="result5"
         in="result4"
         id="feComposite7286" />
      <feComposite
         in2="SourceGraphic"
         id="feComposite7288"
         result="fbSourceGraphic" />
      <feColorMatrix
         result="fbSourceGraphicAlpha"
         in="fbSourceGraphic"
         values="0 0 0 -1 0 0 0 0 -1 0 0 0 0 -1 0 0 0 0 1 0"
         id="feColorMatrix7314" />
      <feTurbulence
         id="feTurbulence7316"
         numOctaves="3"
         seed="55"
         type="fractalNoise"
         baseFrequency="0.02" />
      <feGaussianBlur
         id="feGaussianBlur7318"
         stdDeviation="1"
         result="result91" />
      <feDisplacementMap
         id="feDisplacementMap7320"
         in2="result91"
         scale="15"
         yChannelSelector="G"
         xChannelSelector="R"
         in="fbSourceGraphic" />
      <feGaussianBlur
         id="feGaussianBlur7322"
         stdDeviation="1.5"
         result="result92" />
      <feComposite
         id="feComposite7324"
         in2="result92"
         result="fbSourceGraphic"
         k4="-0.3"
         k3="1"
         k2="1"
         operator="arithmetic"
         k1="0" />
      <feGaussianBlur
         id="feGaussianBlur7326"
         stdDeviation="3.5"
         in="fbSourceGraphic"
         result="result0" />
      <feSpecularLighting
         id="feSpecularLighting7328"
         in="result0"
         result="result1"
         lighting-color="#ffffff"
         surfaceScale="3"
         specularConstant="1"
         specularExponent="55">
        <feDistantLight
           id="feDistantLight7330"
           azimuth="235"
           elevation="65" />
      </feSpecularLighting>
      <feComposite
         id="feComposite7332"
         in2="fbSourceGraphic"
         in="result1"
         result="result2"
         operator="in" />
      <feComposite
         id="feComposite7334"
         in2="result2"
         in="fbSourceGraphic"
         result="result4"
         operator="arithmetic"
         k2="0.4"
         k3="1.7"
         k1="0"
         k4="0" />
      <feBlend
         id="feBlend7336"
         in2="result2"
         result="fbSourceGraphic"
         mode="normal" />
    </filter>
    <filter
       inkscape:label="Fat Oil"
       inkscape:menu="Bevels"
       inkscape:menu-tooltip="Fat oil with some adjustable turbulence"
       height="1.4"
       width="1.4"
       y="-0.2"
       x="-0.2"
       style="color-interpolation-filters:sRGB"
       id="filter7300">
      <feGaussianBlur
         stdDeviation="5"
         in="SourceAlpha"
         result="result1"
         id="feGaussianBlur7302" />
      <feComposite
         operator="arithmetic"
         k2="3.2"
         k1="-1"
         k4="-2"
         result="result3"
         in2="result1"
         id="feComposite7304"
         k3="0" />
      <feColorMatrix
         values="1 0 0 0 0 0 1 0 0 0 0 0 1 0 0 0 0 0 10 0 "
         result="result2"
         id="feColorMatrix7306" />
      <feComposite
         result="fbSourceGraphic"
         in="SourceGraphic"
         operator="out"
         in2="result2"
         id="feComposite7308" />
      <feBlend
         mode="multiply"
         in="result1"
         in2="fbSourceGraphic"
         result="result91"
         id="feBlend7310" />
      <feBlend
         mode="screen"
         in="fbSourceGraphic"
         in2="result91"
         id="feBlend7312"
         result="fbSourceGraphic" />
      <feColorMatrix
         result="fbSourceGraphicAlpha"
         in="fbSourceGraphic"
         values="0 0 0 -1 0 0 0 0 -1 0 0 0 0 -1 0 0 0 0 1 0"
         id="feColorMatrix7372" />
      <feTurbulence
         id="feTurbulence7374"
         numOctaves="3"
         seed="55"
         type="fractalNoise"
         baseFrequency="0.02" />
      <feGaussianBlur
         id="feGaussianBlur7376"
         stdDeviation="1"
         result="result91" />
      <feDisplacementMap
         id="feDisplacementMap7378"
         in2="result91"
         scale="15"
         yChannelSelector="G"
         xChannelSelector="R"
         in="fbSourceGraphic" />
      <feGaussianBlur
         id="feGaussianBlur7380"
         stdDeviation="1.5"
         result="result92" />
      <feComposite
         id="feComposite7382"
         in2="result92"
         result="fbSourceGraphic"
         k4="-0.3"
         k3="1"
         k2="1"
         operator="arithmetic"
         k1="0" />
      <feGaussianBlur
         id="feGaussianBlur7384"
         stdDeviation="3.5"
         in="fbSourceGraphic"
         result="result0" />
      <feSpecularLighting
         id="feSpecularLighting7386"
         in="result0"
         result="result1"
         lighting-color="#ffffff"
         surfaceScale="3"
         specularConstant="1"
         specularExponent="55">
        <feDistantLight
           id="feDistantLight7388"
           azimuth="235"
           elevation="65" />
      </feSpecularLighting>
      <feComposite
         id="feComposite7390"
         in2="fbSourceGraphic"
         in="result1"
         result="result2"
         operator="in" />
      <feComposite
         id="feComposite7392"
         in2="result2"
         in="fbSourceGraphic"
         result="result4"
         operator="arithmetic"
         k2="0.4"
         k3="1.7"
         k1="0"
         k4="0" />
      <feBlend
         id="feBlend7394"
         in2="result2"
         result="fbSourceGraphic"
         mode="normal" />
    </filter>
    <filter
       inkscape:label="Fat Oil"
       inkscape:menu="Bevels"
       inkscape:menu-tooltip="Fat oil with some adjustable turbulence"
       height="1.4"
       width="1.4"
       y="-0.2"
       x="-0.2"
       style="color-interpolation-filters:sRGB"
       id="filter7348">
      <feTurbulence
         numOctaves="3"
         seed="55"
         type="fractalNoise"
         baseFrequency="0.02"
         id="feTurbulence7350" />
      <feGaussianBlur
         stdDeviation="1"
         result="result91"
         id="feGaussianBlur7352" />
      <feDisplacementMap
         scale="15"
         yChannelSelector="G"
         xChannelSelector="R"
         in="SourceGraphic"
         in2="result91"
         id="feDisplacementMap7354" />
      <feGaussianBlur
         stdDeviation="1.5"
         result="result92"
         id="feGaussianBlur7356" />
      <feComposite
         result="fbSourceGraphic"
         k4="-0.3"
         k3="1"
         k2="1"
         operator="arithmetic"
         in2="result92"
         id="feComposite7358"
         k1="0" />
      <feGaussianBlur
         stdDeviation="3.5"
         in="fbSourceGraphic"
         result="result0"
         id="feGaussianBlur7360" />
      <feSpecularLighting
         in="result0"
         result="result1"
         lighting-color="#ffffff"
         surfaceScale="3"
         specularConstant="1"
         specularExponent="55"
         id="feSpecularLighting7362">
        <feDistantLight
           azimuth="235"
           elevation="65"
           id="feDistantLight7364" />
      </feSpecularLighting>
      <feComposite
         in2="fbSourceGraphic"
         in="result1"
         result="result2"
         operator="in"
         id="feComposite7366" />
      <feComposite
         in="fbSourceGraphic"
         result="result4"
         operator="arithmetic"
         k2="0.4"
         k3="1.7"
         in2="result2"
         id="feComposite7368"
         k1="0"
         k4="0" />
      <feBlend
         result="fbSourceGraphic"
         mode="normal"
         in2="result2"
         id="feBlend7370" />
    </filter>
    <filter
       inkscape:label="Dark Glass"
       inkscape:menu="Bevels"
       inkscape:menu-tooltip="Illuminated glass effect with light coming from beneath"
       height="1.5"
       width="1.5"
       y="-0.25"
       x="-0.25"
       style="color-interpolation-filters:sRGB"
       id="filter7406">
      <feBlend
         in2="SourceGraphic"
         result="result1"
         mode="screen"
         id="feBlend7408" />
      <feGaussianBlur
         stdDeviation="2"
         result="result6"
         id="feGaussianBlur7410" />
      <feComposite
         operator="xor"
         in="result6"
         in2="result1"
         result="result7"
         id="feComposite7412" />
      <feComposite
         result="result4"
         in="result7"
         operator="xor"
         in2="result7"
         id="feComposite7414" />
      <feGaussianBlur
         result="result3"
         stdDeviation="3"
         in="result4"
         id="feGaussianBlur7416" />
      <feSpecularLighting
         result="result5"
         specularExponent="55"
         specularConstant="1.5"
         surfaceScale="6"
         in="result3"
         id="feSpecularLighting7418">
        <fePointLight
           z="20000"
           y="-8000"
           x="-5000"
           id="fePointLight7420" />
      </feSpecularLighting>
      <feComposite
         in="result3"
         k3="1"
         k2="1.5"
         operator="arithmetic"
         in2="SourceGraphic"
         result="result92"
         id="feComposite7422"
         k1="0"
         k4="0" />
      <feComposite
         in="result5"
         operator="atop"
         in2="result92"
         result="result93"
         id="feComposite7424" />
      <feBlend
         mode="multiply"
         in2="result93"
         id="feBlend7426" />
    </filter>
  </defs>
  <metadata
     id="metadata7">
    <rdf:RDF>
      <cc:Work
         rdf:about="">
        <dc:format>image/svg+xml</dc:format>
        <dc:type
           rdf:resource="http://purl.org/dc/dcmitype/StillImage" />
        <dc:title></dc:title>
      </cc:Work>
    </rdf:RDF>
  </metadata>
  <g
     id="layer1"
     inkscape:groupmode="layer"
     inkscape:label="Layer 1"
     transform="translate(-197.14313,-358.63336)">
    <text
       xml:space="preserve"
       style="font-style:normal;font-variant:normal;font-weight:normal;font-stretch:normal;font-size:40px;line-height:155.99999428%;font-family:'ubuntu mono';-inkscape-font-specification:'ubuntu mono';letter-spacing:0px;word-spacing:0px;fill:#cd3935;fill-opacity:1;stroke:none;stroke-width:1px;stroke-linecap:butt;stroke-linejoin:miter;stroke-opacity:1"
       x="361.40094"
       y="395.74274"
       id="text7448"
       sodipodi:linespacing="155.99999%"><tspan
         sodipodi:role="line"
         x="361.40094"
         y="395.74274"
         id="tspan7452"
         style="font-style:normal;font-variant:normal;font-weight:bold;font-stretch:normal;font-size:50px;line-height:155.99999428%;font-family:Terminus;-inkscape-font-specification:'Terminus Bold';text-align:center;text-anchor:middle;fill:#cd3935;fill-opacity:1">GAME OVER</tspan></text>
    <text
       xml:space="preserve"
       style="font-style:normal;font-weight:normal;font-size:40px;line-height:125%;font-family:sans-serif;letter-spacing:0px;word-spacing:0px;fill:#8bff00;fill-opacity:1;stroke:none;stroke-width:1px;stroke-linecap:butt;stroke-linejoin:miter;stroke-opacity:1"
       x="207.94878"
       y="559.40771"
       id="text7458"
       sodipodi:linespacing="125%"><tspan
         sodipodi:role="line"
         id="tspan7460"
         x="207.94878"
         y="559.40771">tap to try again</tspan></text>
  </g>
</svg>
