<?xml version="1.0" encoding="UTF-8" standalone="no"?>
<!-- Created with Inkscape (http://www.inkscape.org/) -->

<svg
   xmlns:dc="http://purl.org/dc/elements/1.1/"
   xmlns:cc="http://creativecommons.org/ns#"
   xmlns:rdf="http://www.w3.org/1999/02/22-rdf-syntax-ns#"
   xmlns:svg="http://www.w3.org/2000/svg"
   xmlns="http://www.w3.org/2000/svg"
   xmlns:sodipodi="http://sodipodi.sourceforge.net/DTD/sodipodi-0.dtd"
   xmlns:inkscape="http://www.inkscape.org/namespaces/inkscape"
   width="194.71799"
   height="208.66959"
   viewBox="0 0 194.71799 208.66959"
   id="svg6880"
   version="1.1"
   inkscape:version="0.91 r13725"
   sodipodi:docname="avatar.svg"
   inkscape:export-filename="/home/gt/dev/tinycoderu/games/sparklingtail-ng/assets/play.png"
   inkscape:export-xdpi="90"
   inkscape:export-ydpi="90">
  <defs
     id="defs6882">
    <filter
       inkscape:collect="always"
       style="color-interpolation-filters:sRGB"
       id="filter4285"
       x="-0.024638737"
       width="1.0492775"
       y="-0.023403693"
       height="1.0468074">
      <feGaussianBlur
         inkscape:collect="always"
         stdDeviation="2.9007793"
         id="feGaussianBlur4287" />
    </filter>
  </defs>
  <sodipodi:namedview
     id="base"
     pagecolor="#ffffff"
     bordercolor="#666666"
     borderopacity="1.0"
     inkscape:pageopacity="0.0"
     inkscape:pageshadow="2"
     inkscape:zoom="2.8"
     inkscape:cx="94.350448"
     inkscape:cy="92.34374"
     inkscape:document-units="px"
     inkscape:current-layer="layer1"
     showgrid="false"
     fit-margin-top="0"
     fit-margin-left="0"
     fit-margin-right="0"
     fit-margin-bottom="0"
     units="px"
     inkscape:window-width="1918"
     inkscape:window-height="1078"
     inkscape:window-x="0"
     inkscape:window-y="0"
     inkscape:window-maximized="0" />
  <metadata
     id="metadata6885">
    <rdf:RDF>
      <cc:Work
         rdf:about="">
        <dc:format>image/svg+xml</dc:format>
        <dc:type
           rdf:resource="http://purl.org/dc/dcmitype/StillImage" />
        <dc:title></dc:title>
      </cc:Work>
    </rdf:RDF>
  </metadata>
  <g
     inkscape:label="Layer 1"
     inkscape:groupmode="layer"
     id="layer1"
     transform="translate(159.27696,-392.99779)">
    <g
       id="g6208"
       transform="matrix(1.4979314,0,0,1.4979314,-536.96967,-174.84567)">
      <path
         sodipodi:type="star"
         style="fill:#0b0b28;fill-opacity:1;stroke:none;stroke-width:1;stroke-miterlimit:4;stroke-dasharray:none;stroke-opacity:1;filter:url(#filter4285)"
         id="path4227"
         sodipodi:sides="3"
         sodipodi:cx="208.77899"
         sodipodi:cy="700.35535"
         sodipodi:r1="168.94028"
         sodipodi:r2="84.470139"
         sodipodi:arg1="0.053840132"
         sodipodi:arg2="1.1010377"
         inkscape:flatsided="true"
         inkscape:rounded="0.15"
         inkscape:randomized="0"
         d="M 377.47447,709.44672 C 375.11246,753.27509 153.33337,865.86397 116.55789,841.90423 79.782414,817.94448 93.167126,569.58372 132.30461,549.71509 171.4421,529.84646 379.83648,665.61835 377.47447,709.44672 Z"
         inkscape:transform-center-x="-13.190852"
         inkscape:transform-center-y="-1.7142674"
         transform="matrix(0.43626454,0,0,0.44545117,214.40948,138.78848)" />
      <path
         sodipodi:type="star"
         style="fill:#8a1c1e;fill-opacity:1;stroke:none;stroke-width:1;stroke-miterlimit:4;stroke-dasharray:none;stroke-opacity:1"
         id="path4289"
         sodipodi:sides="3"
         sodipodi:cx="208.77899"
         sodipodi:cy="700.35535"
         sodipodi:r1="168.94028"
         sodipodi:r2="84.470139"
         sodipodi:arg1="0.053840132"
         sodipodi:arg2="1.1010377"
         inkscape:flatsided="true"
         inkscape:rounded="0.15"
         inkscape:randomized="0"
         d="M 377.47447,709.44672 C 375.11246,753.27509 153.33337,865.86397 116.55789,841.90423 79.782414,817.94448 93.167126,569.58372 132.30461,549.71509 171.4421,529.84646 379.83648,665.61835 377.47447,709.44672 Z"
         inkscape:transform-center-x="-13.190852"
         inkscape:transform-center-y="-1.7142674"
         transform="matrix(0.43626454,0,0,0.44545117,210.72545,135.09235)" />
    </g>
  </g>
</svg>
